BD4 - Dashboard and Data Analysis
…
< table of extent 0 >

# A tibble: 90 × 3
    Year ba_quintile mean_crude_rate
   <int>       <int>           <dbl>
 1  1999           1            168.
 2  1999           2            154.
 3  1999           3            159.
 4  1999           4            142.
 5  1999           5            147.
 6  2000           1            166.
 7  2000           2            153.
 8  2000           3            157.
 9  2000           4            140.
10  2000           5            148.
# ℹ 80 more rows
…
